EESchema Schematic File Version 2
LIBS:bell-regulator-rescue
LIBS:power
LIBS:device
LIBS:transistors
LIBS:conn
LIBS:linear
LIBS:regul
LIBS:74xx
LIBS:cmos4000
LIBS:adc-dac
LIBS:memory
LIBS:xilinx
LIBS:microcontrollers
LIBS:dsp
LIBS:microchip
LIBS:analog_switches
LIBS:motorola
LIBS:texas
LIBS:intel
LIBS:audio
LIBS:interface
LIBS:digital-audio
LIBS:philips
LIBS:display
LIBS:cypress
LIBS:siliconi
LIBS:opto
LIBS:atmel
LIBS:contrib
LIBS:valves
LIBS:my-power-supplies
LIBS:my-microcontrollers
LIBS:my-misc-modules
LIBS:my-regulators
LIBS:my-relays
LIBS:bell-regulator-cache
EELAYER 25 0
EELAYER END
$Descr A4 8268 11693 portrait
encoding utf-8
Sheet 1 1
Title ""
Date ""
Rev ""
Comp ""
Comment1 ""
Comment2 ""
Comment3 ""
Comment4 ""
$EndDescr
$Comp
L CONN_01X03 P1
U 1 1 5D84DD11
P 2800 4750
F 0 "P1" H 2800 4950 50  0000 C CNN
F 1 "RELAYS" V 2900 4750 50  0000 C CNN
F 2 "Pin_Headers:Pin_Header_Straight_1x03" H 2800 4750 50  0001 C CNN
F 3 "" H 2800 4750 50  0000 C CNN
	1    2800 4750
	-1   0    0    -1  
$EndComp
$Comp
L GND #PWR01
U 1 1 5D84DE49
P 3100 4950
F 0 "#PWR01" H 3100 4700 50  0001 C CNN
F 1 "GND" H 3100 4800 50  0000 C CNN
F 2 "" H 3100 4950 50  0000 C CNN
F 3 "" H 3100 4950 50  0000 C CNN
	1    3100 4950
	1    0    0    -1  
$EndComp
Wire Wire Line
	3100 4950 3100 4850
Wire Wire Line
	3100 4850 3000 4850
$Comp
L CONN_01X02 P6
U 1 1 5D84EAAB
P 5900 6300
F 0 "P6" H 5900 6450 50  0000 C CNN
F 1 "MAIN-POWER" V 6000 6300 50  0000 C CNN
F 2 "myConnectors:NINIGI_NS25-W2P" H 5900 6300 50  0001 C CNN
F 3 "" H 5900 6300 50  0000 C CNN
	1    5900 6300
	1    0    0    -1  
$EndComp
$Comp
L GND #PWR02
U 1 1 5D84EC74
P 5600 6550
F 0 "#PWR02" H 5600 6300 50  0001 C CNN
F 1 "GND" H 5600 6400 50  0000 C CNN
F 2 "" H 5600 6550 50  0000 C CNN
F 3 "" H 5600 6550 50  0000 C CNN
	1    5600 6550
	1    0    0    -1  
$EndComp
Wire Wire Line
	5600 6550 5600 6350
Wire Wire Line
	5600 6350 5700 6350
Wire Wire Line
	4700 6250 5700 6250
$Comp
L GND #PWR03
U 1 1 5D856C2A
P 4300 6850
F 0 "#PWR03" H 4300 6600 50  0001 C CNN
F 1 "GND" H 4300 6700 50  0000 C CNN
F 2 "" H 4300 6850 50  0000 C CNN
F 3 "" H 4300 6850 50  0000 C CNN
	1    4300 6850
	1    0    0    -1  
$EndComp
Wire Wire Line
	4800 6150 4800 6350
Connection ~ 4800 6250
Text Notes 3500 7250 0    60   ~ 0
U1 can be LM7805, LM7812 or LM7824\ndepending on light voltage
$Comp
L VDD #PWR04
U 1 1 5D8575CE
P 4800 6150
F 0 "#PWR04" H 4800 6000 50  0001 C CNN
F 1 "VDD" H 4800 6300 50  0000 C CNN
F 2 "" H 4800 6150 50  0000 C CNN
F 3 "" H 4800 6150 50  0000 C CNN
	1    4800 6150
	1    0    0    -1  
$EndComp
$Comp
L R R3
U 1 1 5D857CAB
P 4700 4650
F 0 "R3" V 4780 4650 50  0000 C CNN
F 1 "220" V 4700 4650 50  0000 C CNN
F 2 "Resistors_ThroughHole:Resistor_Horizontal_RM10mm" V 4630 4650 50  0001 C CNN
F 3 "" H 4700 4650 50  0000 C CNN
	1    4700 4650
	0    1    1    0   
$EndComp
$Comp
L GND #PWR05
U 1 1 5D857CB2
P 5350 5250
F 0 "#PWR05" H 5350 5000 50  0001 C CNN
F 1 "GND" H 5350 5100 50  0000 C CNN
F 2 "" H 5350 5250 50  0000 C CNN
F 3 "" H 5350 5250 50  0000 C CNN
	1    5350 5250
	1    0    0    -1  
$EndComp
$Comp
L CONN_01X02 P3
U 1 1 5D857CB8
P 5900 4300
F 0 "P3" H 5900 4450 50  0000 C CNN
F 1 "LOW-VOLTAGE-LIGHT" V 6000 4300 50  0000 C CNN
F 2 "myConnectors:NINIGI_NS25-W2P" H 5900 4300 50  0001 C CNN
F 3 "" H 5900 4300 50  0000 C CNN
	1    5900 4300
	1    0    0    -1  
$EndComp
$Comp
L R R4
U 1 1 5D857CBF
P 4950 4900
F 0 "R4" V 5030 4900 50  0000 C CNN
F 1 "100K" V 4950 4900 50  0000 C CNN
F 2 "Resistors_ThroughHole:Resistor_Horizontal_RM10mm" V 4880 4900 50  0001 C CNN
F 3 "" H 4950 4900 50  0000 C CNN
	1    4950 4900
	-1   0    0    1   
$EndComp
$Comp
L IRF540N Q3
U 1 1 5D857CC6
P 5250 4600
F 0 "Q3" V 5500 4750 50  0000 L CNN
F 1 "IRL3303" V 5500 4400 50  0000 L CNN
F 2 "Power_Integrations:TO-220" H 5500 4525 50  0001 L CIN
F 3 "" H 5250 4600 50  0000 L CNN
	1    5250 4600
	1    0    0    -1  
$EndComp
Wire Wire Line
	5350 4250 5350 4150
Wire Wire Line
	5700 4250 5350 4250
Wire Wire Line
	5350 4350 5350 4400
Wire Wire Line
	5700 4350 5350 4350
Connection ~ 5350 5150
Wire Wire Line
	4950 5150 5350 5150
Wire Wire Line
	4950 5050 4950 5150
Connection ~ 4950 4650
Wire Wire Line
	4950 4750 4950 4650
Wire Wire Line
	5350 4800 5350 5250
Wire Wire Line
	4850 4650 5050 4650
$Comp
L VDD #PWR06
U 1 1 5D857CDB
P 5350 4150
F 0 "#PWR06" H 5350 4000 50  0001 C CNN
F 1 "VDD" H 5350 4300 50  0000 C CNN
F 2 "" H 5350 4150 50  0000 C CNN
F 3 "" H 5350 4150 50  0000 C CNN
	1    5350 4150
	1    0    0    -1  
$EndComp
$Comp
L LM7812ACT U1
U 1 1 5D858306
P 4300 6300
F 0 "U1" H 4100 6500 50  0000 C CNN
F 1 "LM78XXACT" H 4200 6500 50  0000 L CNN
F 2 "Power_Integrations:TO-220" H 4300 6400 50  0001 C CIN
F 3 "" H 4300 6300 50  0000 C CNN
	1    4300 6300
	1    0    0    -1  
$EndComp
$Comp
L CONN_01X02 P5
U 1 1 5D8583CF
P 2800 6300
F 0 "P5" H 2800 6450 50  0000 C CNN
F 1 "POWER-SUPPLY" V 2900 6300 50  0000 C CNN
F 2 "myConnectors:NINIGI_NS25-W2P" H 2800 6300 50  0001 C CNN
F 3 "" H 2800 6300 50  0000 C CNN
	1    2800 6300
	-1   0    0    -1  
$EndComp
Wire Wire Line
	3000 6250 3900 6250
$Comp
L GND #PWR07
U 1 1 5D858523
P 3100 6450
F 0 "#PWR07" H 3100 6200 50  0001 C CNN
F 1 "GND" H 3100 6300 50  0000 C CNN
F 2 "" H 3100 6450 50  0000 C CNN
F 3 "" H 3100 6450 50  0000 C CNN
	1    3100 6450
	1    0    0    -1  
$EndComp
Wire Wire Line
	3100 6450 3100 6350
Wire Wire Line
	3100 6350 3000 6350
$Comp
L C C1
U 1 1 5D8585CE
P 3850 6500
F 0 "C1" H 3875 6600 50  0000 L CNN
F 1 "470nF" H 3875 6400 50  0000 L CNN
F 2 "Capacitors_ThroughHole:C_Rect_L7_W2.5_P5" H 3888 6350 50  0001 C CNN
F 3 "" H 3850 6500 50  0000 C CNN
	1    3850 6500
	1    0    0    -1  
$EndComp
Wire Wire Line
	3850 6350 3850 6250
Connection ~ 3850 6250
Wire Wire Line
	3850 6650 3850 6750
Wire Wire Line
	3850 6750 4800 6750
Wire Wire Line
	4300 6550 4300 6850
Connection ~ 4300 6750
$Comp
L C C2
U 1 1 5D858740
P 4800 6500
F 0 "C2" H 4825 6600 50  0000 L CNN
F 1 "100nF" H 4825 6400 50  0000 L CNN
F 2 "Capacitors_ThroughHole:C_Rect_L7_W2.5_P5" H 4838 6350 50  0001 C CNN
F 3 "" H 4800 6500 50  0000 C CNN
	1    4800 6500
	1    0    0    -1  
$EndComp
Wire Wire Line
	4800 6750 4800 6650
$Comp
L HEATSINK HS1
U 1 1 5D858987
P 4300 5950
F 0 "HS1" H 4300 6150 50  0000 C CNN
F 1 "HEATSINK" H 4300 5900 50  0000 C CNN
F 2 "myHeatSinks:HEAT-SINK-TO220-24x12x30" H 4300 5950 50  0001 C CNN
F 3 "" H 4300 5950 50  0000 C CNN
	1    4300 5950
	1    0    0    -1  
$EndComp
Wire Wire Line
	3000 4650 4550 4650
$EndSCHEMATC
