EESchema Schematic File Version 2
LIBS:power
LIBS:device
LIBS:transistors
LIBS:conn
LIBS:linear
LIBS:regul
LIBS:74xx
LIBS:cmos4000
LIBS:adc-dac
LIBS:memory
LIBS:xilinx
LIBS:microcontrollers
LIBS:dsp
LIBS:microchip
LIBS:analog_switches
LIBS:motorola
LIBS:texas
LIBS:intel
LIBS:audio
LIBS:interface
LIBS:digital-audio
LIBS:philips
LIBS:display
LIBS:cypress
LIBS:siliconi
LIBS:opto
LIBS:atmel
LIBS:contrib
LIBS:valves
LIBS:my-passives
LIBS:my-misc-modules
LIBS:bell-sensors-light-cache
EELAYER 25 0
EELAYER END
$Descr A4 11693 8268
encoding utf-8
Sheet 1 1
Title ""
Date ""
Rev ""
Comp ""
Comment1 ""
Comment2 ""
Comment3 ""
Comment4 ""
$EndDescr
$Comp
L CONN_01X04 P1
U 1 1 5D85FF1D
P 4400 3450
F 0 "P1" H 4400 3700 50  0000 C CNN
F 1 "LDR-PIR" V 4500 3450 50  0000 C CNN
F 2 "Pin_Headers:Pin_Header_Angled_1x04" H 4400 3450 50  0001 C CNN
F 3 "" H 4400 3450 50  0000 C CNN
	1    4400 3450
	-1   0    0    -1  
$EndComp
$Comp
L LDR07 R1
U 1 1 5D860065
P 5300 3050
F 0 "R1" V 5100 3050 50  0000 C CNN
F 1 "GL5528" V 5375 3050 50  0000 C TNN
F 2 "myPassives:R_LDR_4.9x4.2mm_P2.54mm_Vertical" V 5475 3050 50  0001 C CNN
F 3 "" H 5300 3000 50  0001 C CNN
	1    5300 3050
	1    0    0    -1  
$EndComp
Wire Wire Line
	4600 3600 5300 3600
Wire Wire Line
	5300 3600 5300 3200
$Comp
L +3.3V #PWR2
U 1 1 5D860106
P 5300 2700
F 0 "#PWR2" H 5300 2550 50  0001 C CNN
F 1 "+3.3V" H 5300 2840 50  0000 C CNN
F 2 "" H 5300 2700 50  0000 C CNN
F 3 "" H 5300 2700 50  0000 C CNN
	1    5300 2700
	1    0    0    -1  
$EndComp
Wire Wire Line
	5300 2700 5300 2900
Wire Wire Line
	5000 2800 5000 3500
Wire Wire Line
	4600 3500 5700 3500
$Comp
L MH-SR602 U1
U 1 1 5D86039C
P 5900 3400
F 0 "U1" H 6250 3600 60  0000 C CNN
F 1 "MH-SR602" H 6250 3500 60  0000 C CNN
F 2 "myModules:MH-SR602" H 5900 3400 60  0001 C CNN
F 3 "" H 5900 3400 60  0000 C CNN
	1    5900 3400
	1    0    0    -1  
$EndComp
Wire Wire Line
	4600 3400 5700 3400
Connection ~ 5000 3500
Wire Wire Line
	5000 2800 5300 2800
Connection ~ 5300 2800
Wire Wire Line
	4600 3300 5500 3300
Wire Wire Line
	5500 3300 5500 3600
Wire Wire Line
	5500 3600 5700 3600
$Comp
L CONN_01X02 P2
U 1 1 5D8603CA
P 4400 4550
F 0 "P2" H 4400 4700 50  0000 C CNN
F 1 "LOW-VOLTAGE-LIGHT" V 4500 4550 50  0000 C CNN
F 2 "myConnectors:NINIGI_NS25-W2K" H 4400 4550 50  0001 C CNN
F 3 "" H 4400 4550 50  0000 C CNN
	1    4400 4550
	-1   0    0    1   
$EndComp
Wire Wire Line
	4600 4600 4800 4600
$Comp
L CONN_01X01 P3
U 1 1 5D860770
P 5300 4400
F 0 "P3" H 5300 4500 50  0000 C CNN
F 1 "5630-" V 5400 4400 50  0000 C CNN
F 2 "Pin_Headers:Pin_Header_Straight_1x01" H 5300 4400 50  0001 C CNN
F 3 "" H 5300 4400 50  0000 C CNN
	1    5300 4400
	1    0    0    -1  
$EndComp
$Comp
L CONN_01X01 P4
U 1 1 5D8607AF
P 5300 4700
F 0 "P4" H 5300 4800 50  0000 C CNN
F 1 "5630+" V 5400 4700 50  0000 C CNN
F 2 "Pin_Headers:Pin_Header_Straight_1x01" H 5300 4700 50  0001 C CNN
F 3 "" H 5300 4700 50  0000 C CNN
	1    5300 4700
	1    0    0    -1  
$EndComp
Wire Wire Line
	4800 4600 4800 5000
Wire Wire Line
	4800 4700 5100 4700
Wire Wire Line
	5100 4400 4800 4400
Wire Wire Line
	4800 4100 4800 4500
Wire Wire Line
	4800 4500 4600 4500
$Comp
L GND #PWR1
U 1 1 5D860B03
P 4800 3700
F 0 "#PWR1" H 4800 3450 50  0001 C CNN
F 1 "GND" H 4800 3550 50  0000 C CNN
F 2 "" H 4800 3700 50  0000 C CNN
F 3 "" H 4800 3700 50  0000 C CNN
	1    4800 3700
	1    0    0    -1  
$EndComp
Wire Wire Line
	4800 3700 4800 3400
Connection ~ 4800 3400
$Comp
L CONN_01X01 P5
U 1 1 5D872B50
P 5300 4100
F 0 "P5" H 5300 4200 50  0000 C CNN
F 1 "5630-" V 5400 4100 50  0000 C CNN
F 2 "Pin_Headers:Pin_Header_Straight_1x01" H 5300 4100 50  0001 C CNN
F 3 "" H 5300 4100 50  0000 C CNN
	1    5300 4100
	1    0    0    -1  
$EndComp
Wire Wire Line
	5100 4100 4800 4100
Connection ~ 4800 4400
$Comp
L CONN_01X01 P6
U 1 1 5D872B9B
P 5300 5000
F 0 "P6" H 5300 5100 50  0000 C CNN
F 1 "5630+" V 5400 5000 50  0000 C CNN
F 2 "Pin_Headers:Pin_Header_Straight_1x01" H 5300 5000 50  0001 C CNN
F 3 "" H 5300 5000 50  0000 C CNN
	1    5300 5000
	1    0    0    -1  
$EndComp
Wire Wire Line
	4800 5000 5100 5000
Connection ~ 4800 4700
$EndSCHEMATC
