EESchema Schematic File Version 2
LIBS:bell-power-supply-rescue
LIBS:power
LIBS:device
LIBS:transistors
LIBS:conn
LIBS:linear
LIBS:regul
LIBS:74xx
LIBS:cmos4000
LIBS:adc-dac
LIBS:memory
LIBS:xilinx
LIBS:microcontrollers
LIBS:dsp
LIBS:microchip
LIBS:analog_switches
LIBS:motorola
LIBS:texas
LIBS:intel
LIBS:audio
LIBS:interface
LIBS:digital-audio
LIBS:philips
LIBS:display
LIBS:cypress
LIBS:siliconi
LIBS:opto
LIBS:atmel
LIBS:contrib
LIBS:valves
LIBS:my-power-supplies
LIBS:my-microcontrollers
LIBS:my-misc-modules
LIBS:my-regulators
LIBS:my-relays
LIBS:bell-power-supply-cache
EELAYER 25 0
EELAYER END
$Descr A4 8268 11693 portrait
encoding utf-8
Sheet 1 1
Title ""
Date ""
Rev ""
Comp ""
Comment1 ""
Comment2 ""
Comment3 ""
Comment4 ""
$EndDescr
$Comp
L R R2
U 1 1 5AD441DE
P 3450 6450
F 0 "R2" V 3530 6450 50  0000 C CNN
F 1 "1K" V 3450 6450 50  0000 C CNN
F 2 "Resistors_ThroughHole:Resistor_Horizontal_RM10mm" V 3380 6450 50  0001 C CNN
F 3 "" H 3450 6450 50  0000 C CNN
	1    3450 6450
	0    1    1    0   
$EndComp
$Comp
L D D2
U 1 1 5AD441E4
P 3800 5850
F 0 "D2" H 3800 5950 50  0000 C CNN
F 1 "1N4148" H 3800 5750 50  0000 C CNN
F 2 "Diodes_ThroughHole:Diode_DO-35_SOD27_Horizontal_RM10" H 3800 5850 50  0001 C CNN
F 3 "" H 3800 5850 50  0000 C CNN
	1    3800 5850
	0    1    1    0   
$EndComp
$Comp
L PN2222A Q2
U 1 1 5AD441EA
P 3900 6450
F 0 "Q2" H 4100 6525 50  0000 L CNN
F 1 "2N2222" H 4100 6450 50  0000 L CNN
F 2 "TO_SOT_Packages_THT:TO-92_Inline_Wide" H 4100 6375 50  0001 L CIN
F 3 "" H 3900 6450 50  0000 L CNN
	1    3900 6450
	1    0    0    -1  
$EndComp
$Comp
L GND #PWR01
U 1 1 5AD441F0
P 4000 6750
F 0 "#PWR01" H 4000 6500 50  0001 C CNN
F 1 "GND" H 4000 6600 50  0000 C CNN
F 2 "" H 4000 6750 50  0000 C CNN
F 3 "" H 4000 6750 50  0000 C CNN
	1    4000 6750
	1    0    0    -1  
$EndComp
$Comp
L CONN_01X02 P5
U 1 1 5AD442F4
P 5900 5650
F 0 "P5" H 5900 5800 50  0000 C CNN
F 1 "230V-AMPLIFIER-POWER-SUPPLY" V 6000 5650 50  0000 C CNN
F 2 "Connect:bornier2" H 5900 5650 50  0001 C CNN
F 3 "" H 5900 5650 50  0000 C CNN
	1    5900 5650
	1    0    0    1   
$EndComp
Wire Wire Line
	5600 7200 5600 3800
Wire Wire Line
	5700 5600 5600 5600
Wire Wire Line
	5550 7100 5550 3500
Wire Wire Line
	3200 6450 3300 6450
Wire Wire Line
	5700 5700 5350 5700
Wire Wire Line
	4450 5300 5550 5300
Wire Wire Line
	4000 5900 4550 5900
Wire Wire Line
	3600 6450 3700 6450
Wire Wire Line
	4000 6650 4000 6750
Wire Wire Line
	4000 5900 4000 6250
Wire Wire Line
	3800 6000 3800 6100
Wire Wire Line
	3800 6100 4000 6100
Connection ~ 4000 6100
$Comp
L R R1
U 1 1 5D80C84A
P 3450 4650
F 0 "R1" V 3530 4650 50  0000 C CNN
F 1 "1K" V 3450 4650 50  0000 C CNN
F 2 "Resistors_ThroughHole:Resistor_Horizontal_RM10mm" V 3380 4650 50  0001 C CNN
F 3 "" H 3450 4650 50  0000 C CNN
	1    3450 4650
	0    1    1    0   
$EndComp
$Comp
L D D1
U 1 1 5D80C850
P 3800 4050
F 0 "D1" H 3800 4150 50  0000 C CNN
F 1 "1N4148" H 3800 3950 50  0000 C CNN
F 2 "Diodes_ThroughHole:Diode_DO-35_SOD27_Horizontal_RM10" H 3800 4050 50  0001 C CNN
F 3 "" H 3800 4050 50  0000 C CNN
	1    3800 4050
	0    1    1    0   
$EndComp
$Comp
L PN2222A Q1
U 1 1 5D80C856
P 3900 4650
F 0 "Q1" H 4100 4725 50  0000 L CNN
F 1 "2N2222" H 4100 4650 50  0000 L CNN
F 2 "TO_SOT_Packages_THT:TO-92_Inline_Wide" H 4100 4575 50  0001 L CIN
F 3 "" H 3900 4650 50  0000 L CNN
	1    3900 4650
	1    0    0    -1  
$EndComp
$Comp
L GND #PWR02
U 1 1 5D80C85C
P 4000 4950
F 0 "#PWR02" H 4000 4700 50  0001 C CNN
F 1 "GND" H 4000 4800 50  0000 C CNN
F 2 "" H 4000 4950 50  0000 C CNN
F 3 "" H 4000 4950 50  0000 C CNN
	1    4000 4950
	1    0    0    -1  
$EndComp
$Comp
L CONN_01X02 P4
U 1 1 5D80C868
P 5900 3850
F 0 "P4" H 5900 4000 50  0000 C CNN
F 1 "230V-LIGHT" V 6000 3850 50  0000 C CNN
F 2 "Connect:bornier2" H 5900 3850 50  0001 C CNN
F 3 "" H 5900 3850 50  0000 C CNN
	1    5900 3850
	1    0    0    1   
$EndComp
Wire Wire Line
	5600 3800 5700 3800
Wire Wire Line
	5550 3500 4450 3500
Wire Wire Line
	4000 4100 4550 4100
Wire Wire Line
	3600 4650 3700 4650
Wire Wire Line
	4000 4850 4000 4950
Wire Wire Line
	4000 4100 4000 4450
Wire Wire Line
	3800 4200 3800 4300
Wire Wire Line
	3800 4300 4000 4300
Connection ~ 4000 4300
Connection ~ 5550 5300
Connection ~ 5600 5600
Wire Wire Line
	3000 4650 3300 4650
Wire Wire Line
	5350 3900 5700 3900
$Comp
L RELAY_SPDT K1
U 1 1 5D80D58C
P 4950 3750
F 0 "K1" H 4850 3850 50  0000 C CNN
F 1 "FINDER 36.11.9.012.4011" H 4950 3250 50  0000 C CNN
F 2 "myRelays:Relay_SPDT_Finder-36.11" H 4950 3750 50  0001 C CNN
F 3 "" H 4950 3750 50  0000 C CNN
	1    4950 3750
	1    0    0    -1  
$EndComp
Wire Wire Line
	4450 3500 4450 3800
Wire Wire Line
	4450 3800 4550 3800
Wire Wire Line
	4000 4000 4550 4000
Wire Wire Line
	4000 3650 4000 4000
Wire Wire Line
	3800 3900 3800 3800
Wire Wire Line
	3800 3800 4000 3800
Connection ~ 4000 3800
$Comp
L RELAY_SPDT K2
U 1 1 5D80CE2F
P 4950 5550
F 0 "K2" H 4900 5650 50  0000 C CNN
F 1 "FINDER 36.11.9.012.4011" H 4950 5050 50  0000 C CNN
F 2 "myRelays:Relay_SPDT_Finder-36.11" H 4950 5550 50  0001 C CNN
F 3 "" H 4950 5550 50  0000 C CNN
	1    4950 5550
	1    0    0    -1  
$EndComp
Wire Wire Line
	4450 5300 4450 5600
Wire Wire Line
	4450 5600 4550 5600
Wire Wire Line
	4000 5450 4000 5800
Wire Wire Line
	4000 5800 4550 5800
Wire Wire Line
	3800 5700 3800 5600
Wire Wire Line
	3800 5600 4000 5600
Connection ~ 4000 5600
Wire Wire Line
	3000 7200 5600 7200
$Comp
L CONN_01X02 P2
U 1 1 59908412
P 2800 7150
F 0 "P2" H 2800 7300 50  0000 C CNN
F 1 "AC-230V" V 2900 7150 50  0000 C CNN
F 2 "Connect:bornier2" H 2800 7150 50  0001 C CNN
F 3 "" H 2800 7150 50  0000 C CNN
	1    2800 7150
	-1   0    0    -1  
$EndComp
$Comp
L CONN_01X03 P1
U 1 1 5D84DD11
P 2800 4750
F 0 "P1" H 2800 4950 50  0000 C CNN
F 1 "RELAYS" V 2900 4750 50  0000 C CNN
F 2 "Pin_Headers:Pin_Header_Straight_1x03" H 2800 4750 50  0001 C CNN
F 3 "" H 2800 4750 50  0000 C CNN
	1    2800 4750
	-1   0    0    -1  
$EndComp
Wire Wire Line
	3000 4750 3200 4750
Wire Wire Line
	3200 4750 3200 6450
$Comp
L GND #PWR03
U 1 1 5D84DE49
P 3100 4950
F 0 "#PWR03" H 3100 4700 50  0001 C CNN
F 1 "GND" H 3100 4800 50  0000 C CNN
F 2 "" H 3100 4950 50  0000 C CNN
F 3 "" H 3100 4950 50  0000 C CNN
	1    3100 4950
	1    0    0    -1  
$EndComp
Wire Wire Line
	3100 4950 3100 4850
Wire Wire Line
	3100 4850 3000 4850
$Comp
L CONN_01X02 P6
U 1 1 5D84EAAB
P 5900 7850
F 0 "P6" H 5900 8000 50  0000 C CNN
F 1 "MAIN-POWER" V 6000 7850 50  0000 C CNN
F 2 "myConnectors:NINIGI_NS25-W2P" H 5900 7850 50  0001 C CNN
F 3 "" H 5900 7850 50  0000 C CNN
	1    5900 7850
	1    0    0    -1  
$EndComp
$Comp
L GND #PWR04
U 1 1 5D84EC74
P 5600 8100
F 0 "#PWR04" H 5600 7850 50  0001 C CNN
F 1 "GND" H 5600 7950 50  0000 C CNN
F 2 "" H 5600 8100 50  0000 C CNN
F 3 "" H 5600 8100 50  0000 C CNN
	1    5600 8100
	1    0    0    -1  
$EndComp
Wire Wire Line
	5600 8100 5600 7900
Wire Wire Line
	5600 7900 5700 7900
Wire Wire Line
	3000 7100 5550 7100
$Comp
L IRM-XX-XX U1
U 1 1 5D856B91
P 4050 7900
F 0 "U1" H 4050 8150 60  0000 C CNN
F 1 "IRM-05-XX" H 3800 7650 60  0000 L CNN
F 2 "myPowerSupplies:MEANWELL_IRM-05-XX" H 4050 7900 60  0001 C CNN
F 3 "" H 4050 7900 60  0000 C CNN
	1    4050 7900
	1    0    0    -1  
$EndComp
Wire Wire Line
	4700 7800 5700 7800
$Comp
L GND #PWR05
U 1 1 5D856C2A
P 4800 8100
F 0 "#PWR05" H 4800 7850 50  0001 C CNN
F 1 "GND" H 4800 7950 50  0000 C CNN
F 2 "" H 4800 8100 50  0000 C CNN
F 3 "" H 4800 8100 50  0000 C CNN
	1    4800 8100
	1    0    0    -1  
$EndComp
Wire Wire Line
	4800 8100 4800 8000
Wire Wire Line
	4800 8000 4700 8000
Wire Wire Line
	3400 7850 3300 7850
Wire Wire Line
	3300 7850 3300 7100
Connection ~ 3300 7100
Wire Wire Line
	3200 7200 3200 7950
Wire Wire Line
	3200 7950 3400 7950
Connection ~ 3200 7200
Wire Wire Line
	4800 7700 4800 7800
Connection ~ 4800 7800
Text Notes 4600 4600 0    60   ~ 0
Q1, R1, D1, K1 & P3 :\nfor 230V light only
Text Notes 3450 7500 0    60   ~ 0
U1 can be IRM-05-5,  IRM-05-12 or IRM-05-24\nIRM-10-5,  IRM-10-12 or IRM-10-24\ndepending on relay and light voltage
$Comp
L VDD #PWR06
U 1 1 5D85751A
P 4000 3650
F 0 "#PWR06" H 4000 3500 50  0001 C CNN
F 1 "VDD" H 4000 3800 50  0000 C CNN
F 2 "" H 4000 3650 50  0000 C CNN
F 3 "" H 4000 3650 50  0000 C CNN
	1    4000 3650
	1    0    0    -1  
$EndComp
$Comp
L VDD #PWR07
U 1 1 5D85757C
P 4000 5450
F 0 "#PWR07" H 4000 5300 50  0001 C CNN
F 1 "VDD" H 4000 5600 50  0000 C CNN
F 2 "" H 4000 5450 50  0000 C CNN
F 3 "" H 4000 5450 50  0000 C CNN
	1    4000 5450
	1    0    0    -1  
$EndComp
$Comp
L VDD #PWR08
U 1 1 5D8575CE
P 4800 7700
F 0 "#PWR08" H 4800 7550 50  0001 C CNN
F 1 "VDD" H 4800 7850 50  0000 C CNN
F 2 "" H 4800 7700 50  0000 C CNN
F 3 "" H 4800 7700 50  0000 C CNN
	1    4800 7700
	1    0    0    -1  
$EndComp
$Comp
L R R3
U 1 1 5D857CAB
P 4700 2300
F 0 "R3" V 4780 2300 50  0000 C CNN
F 1 "220" V 4700 2300 50  0000 C CNN
F 2 "Resistors_ThroughHole:Resistor_Horizontal_RM10mm" V 4630 2300 50  0001 C CNN
F 3 "" H 4700 2300 50  0000 C CNN
	1    4700 2300
	0    1    1    0   
$EndComp
$Comp
L GND #PWR09
U 1 1 5D857CB2
P 5350 2900
F 0 "#PWR09" H 5350 2650 50  0001 C CNN
F 1 "GND" H 5350 2750 50  0000 C CNN
F 2 "" H 5350 2900 50  0000 C CNN
F 3 "" H 5350 2900 50  0000 C CNN
	1    5350 2900
	1    0    0    -1  
$EndComp
$Comp
L CONN_01X02 P3
U 1 1 5D857CB8
P 5900 1950
F 0 "P3" H 5900 2100 50  0000 C CNN
F 1 "LOW-VOLTAGE-LIGHT" V 6000 1950 50  0000 C CNN
F 2 "myConnectors:NINIGI_NS25-W2P" H 5900 1950 50  0001 C CNN
F 3 "" H 5900 1950 50  0000 C CNN
	1    5900 1950
	1    0    0    -1  
$EndComp
$Comp
L R R4
U 1 1 5D857CBF
P 4950 2550
F 0 "R4" V 5030 2550 50  0000 C CNN
F 1 "100K" V 4950 2550 50  0000 C CNN
F 2 "Resistors_ThroughHole:Resistor_Horizontal_RM10mm" V 4880 2550 50  0001 C CNN
F 3 "" H 4950 2550 50  0000 C CNN
	1    4950 2550
	-1   0    0    1   
$EndComp
$Comp
L IRF540N Q3
U 1 1 5D857CC6
P 5250 2250
F 0 "Q3" V 5500 2400 50  0000 L CNN
F 1 "IRL3303" V 5500 2050 50  0000 L CNN
F 2 "Power_Integrations:TO-220" H 5500 2175 50  0001 L CIN
F 3 "" H 5250 2250 50  0000 L CNN
	1    5250 2250
	1    0    0    -1  
$EndComp
Wire Wire Line
	3200 2300 4550 2300
Wire Wire Line
	5350 1900 5350 1800
Wire Wire Line
	5700 1900 5350 1900
Wire Wire Line
	5350 2000 5350 2050
Wire Wire Line
	5700 2000 5350 2000
Connection ~ 5350 2800
Wire Wire Line
	4950 2800 5350 2800
Wire Wire Line
	4950 2700 4950 2800
Connection ~ 4950 2300
Wire Wire Line
	4950 2400 4950 2300
Wire Wire Line
	5350 2450 5350 2900
Wire Wire Line
	4850 2300 5050 2300
$Comp
L VDD #PWR010
U 1 1 5D857CDB
P 5350 1800
F 0 "#PWR010" H 5350 1650 50  0001 C CNN
F 1 "VDD" H 5350 1950 50  0000 C CNN
F 2 "" H 5350 1800 50  0000 C CNN
F 3 "" H 5350 1800 50  0000 C CNN
	1    5350 1800
	1    0    0    -1  
$EndComp
Text Notes 4750 3300 0    60   ~ 0
Q1, R2 R6 & P1 :\nfor low voltage light only
Wire Wire Line
	3200 2300 3200 4650
Connection ~ 3200 4650
Text Notes 4600 6400 0    60   ~ 0
Q2, R2, D2, K2 & P5 :\nonly if an amplifier is used
$EndSCHEMATC
