EESchema Schematic File Version 2
LIBS:bell-regulator-rescue
LIBS:power
LIBS:device
LIBS:transistors
LIBS:conn
LIBS:linear
LIBS:regul
LIBS:74xx
LIBS:cmos4000
LIBS:adc-dac
LIBS:memory
LIBS:xilinx
LIBS:microcontrollers
LIBS:dsp
LIBS:microchip
LIBS:analog_switches
LIBS:motorola
LIBS:texas
LIBS:intel
LIBS:audio
LIBS:interface
LIBS:digital-audio
LIBS:philips
LIBS:display
LIBS:cypress
LIBS:siliconi
LIBS:opto
LIBS:atmel
LIBS:contrib
LIBS:valves
LIBS:my-power-supplies
LIBS:my-microcontrollers
LIBS:my-misc-modules
LIBS:my-regulators
LIBS:my-relays
LIBS:bell-regulator-cache
EELAYER 25 0
EELAYER END
$Descr A4 8268 11693 portrait
encoding utf-8
Sheet 1 1
Title ""
Date ""
Rev ""
Comp ""
Comment1 ""
Comment2 ""
Comment3 ""
Comment4 ""
$EndDescr
Wire Wire Line
	5600 5600 5600 3800
Wire Wire Line
	5550 5500 5550 3500
$Comp
L R R1
U 1 1 5D80C84A
P 3450 4650
F 0 "R1" V 3530 4650 50  0000 C CNN
F 1 "1K" V 3450 4650 50  0000 C CNN
F 2 "Resistors_ThroughHole:Resistor_Horizontal_RM10mm" V 3380 4650 50  0001 C CNN
F 3 "" H 3450 4650 50  0000 C CNN
	1    3450 4650
	0    1    1    0   
$EndComp
$Comp
L D D1
U 1 1 5D80C850
P 3800 4050
F 0 "D1" H 3800 4150 50  0000 C CNN
F 1 "1N4148" H 3800 3950 50  0000 C CNN
F 2 "Diodes_ThroughHole:Diode_DO-35_SOD27_Horizontal_RM10" H 3800 4050 50  0001 C CNN
F 3 "" H 3800 4050 50  0000 C CNN
	1    3800 4050
	0    1    1    0   
$EndComp
$Comp
L PN2222A Q1
U 1 1 5D80C856
P 3900 4650
F 0 "Q1" H 4100 4725 50  0000 L CNN
F 1 "2N2222" H 4100 4650 50  0000 L CNN
F 2 "TO_SOT_Packages_THT:TO-92_Inline_Wide" H 4100 4575 50  0001 L CIN
F 3 "" H 3900 4650 50  0000 L CNN
	1    3900 4650
	1    0    0    -1  
$EndComp
$Comp
L GND #PWR01
U 1 1 5D80C85C
P 4000 4950
F 0 "#PWR01" H 4000 4700 50  0001 C CNN
F 1 "GND" H 4000 4800 50  0000 C CNN
F 2 "" H 4000 4950 50  0000 C CNN
F 3 "" H 4000 4950 50  0000 C CNN
	1    4000 4950
	1    0    0    -1  
$EndComp
$Comp
L CONN_01X02 P4
U 1 1 5D80C868
P 5900 3850
F 0 "P4" H 5900 4000 50  0000 C CNN
F 1 "230V-LIGHT" V 6000 3850 50  0000 C CNN
F 2 "Connect:bornier2" H 5900 3850 50  0001 C CNN
F 3 "" H 5900 3850 50  0000 C CNN
	1    5900 3850
	1    0    0    1   
$EndComp
Wire Wire Line
	5600 3800 5700 3800
Wire Wire Line
	5550 3500 4450 3500
Wire Wire Line
	4000 4100 4550 4100
Wire Wire Line
	3600 4650 3700 4650
Wire Wire Line
	4000 4850 4000 4950
Wire Wire Line
	4000 4100 4000 4450
Wire Wire Line
	3800 4200 3800 4300
Wire Wire Line
	3800 4300 4000 4300
Connection ~ 4000 4300
Wire Wire Line
	3000 4650 3300 4650
Wire Wire Line
	5350 3900 5700 3900
$Comp
L RELAY_SPDT K1
U 1 1 5D80D58C
P 4950 3750
F 0 "K1" H 4850 3850 50  0000 C CNN
F 1 "FINDER 36.11.9.012.4011" H 4950 3250 50  0000 C CNN
F 2 "myRelays:Relay_SPDT_Finder-36.11" H 4950 3750 50  0001 C CNN
F 3 "" H 4950 3750 50  0000 C CNN
	1    4950 3750
	1    0    0    -1  
$EndComp
Wire Wire Line
	4450 3500 4450 3800
Wire Wire Line
	4450 3800 4550 3800
Wire Wire Line
	4000 4000 4550 4000
Wire Wire Line
	4000 3650 4000 4000
Wire Wire Line
	3800 3900 3800 3800
Wire Wire Line
	3800 3800 4000 3800
Connection ~ 4000 3800
Wire Wire Line
	3000 5600 5600 5600
$Comp
L CONN_01X02 P2
U 1 1 59908412
P 2800 5550
F 0 "P2" H 2800 5700 50  0000 C CNN
F 1 "AC-230V" V 2900 5550 50  0000 C CNN
F 2 "Connect:bornier2" H 2800 5550 50  0001 C CNN
F 3 "" H 2800 5550 50  0000 C CNN
	1    2800 5550
	-1   0    0    -1  
$EndComp
$Comp
L CONN_01X03 P1
U 1 1 5D84DD11
P 2800 4750
F 0 "P1" H 2800 4950 50  0000 C CNN
F 1 "RELAYS" V 2900 4750 50  0000 C CNN
F 2 "Pin_Headers:Pin_Header_Straight_1x03" H 2800 4750 50  0001 C CNN
F 3 "" H 2800 4750 50  0000 C CNN
	1    2800 4750
	-1   0    0    -1  
$EndComp
$Comp
L GND #PWR02
U 1 1 5D84DE49
P 3100 4950
F 0 "#PWR02" H 3100 4700 50  0001 C CNN
F 1 "GND" H 3100 4800 50  0000 C CNN
F 2 "" H 3100 4950 50  0000 C CNN
F 3 "" H 3100 4950 50  0000 C CNN
	1    3100 4950
	1    0    0    -1  
$EndComp
Wire Wire Line
	3100 4950 3100 4850
Wire Wire Line
	3100 4850 3000 4850
$Comp
L CONN_01X02 P6
U 1 1 5D84EAAB
P 5900 6300
F 0 "P6" H 5900 6450 50  0000 C CNN
F 1 "MAIN-POWER" V 6000 6300 50  0000 C CNN
F 2 "myConnectors:NINIGI_NS25-W2P" H 5900 6300 50  0001 C CNN
F 3 "" H 5900 6300 50  0000 C CNN
	1    5900 6300
	1    0    0    -1  
$EndComp
$Comp
L GND #PWR03
U 1 1 5D84EC74
P 5600 6550
F 0 "#PWR03" H 5600 6300 50  0001 C CNN
F 1 "GND" H 5600 6400 50  0000 C CNN
F 2 "" H 5600 6550 50  0000 C CNN
F 3 "" H 5600 6550 50  0000 C CNN
	1    5600 6550
	1    0    0    -1  
$EndComp
Wire Wire Line
	5600 6550 5600 6350
Wire Wire Line
	5600 6350 5700 6350
Wire Wire Line
	3000 5500 5550 5500
Wire Wire Line
	4700 6250 5700 6250
$Comp
L GND #PWR04
U 1 1 5D856C2A
P 4300 6850
F 0 "#PWR04" H 4300 6600 50  0001 C CNN
F 1 "GND" H 4300 6700 50  0000 C CNN
F 2 "" H 4300 6850 50  0000 C CNN
F 3 "" H 4300 6850 50  0000 C CNN
	1    4300 6850
	1    0    0    -1  
$EndComp
Wire Wire Line
	4800 6150 4800 6350
Connection ~ 4800 6250
Text Notes 4600 4600 0    60   ~ 0
Q1, R1, D1, K1 & P3 :\nfor 230V light only
Text Notes 3500 7250 0    60   ~ 0
U1 can be LM7805, LM7812 or LM7824\ndepending on relay and light voltage
$Comp
L VDD #PWR05
U 1 1 5D85751A
P 4000 3650
F 0 "#PWR05" H 4000 3500 50  0001 C CNN
F 1 "VDD" H 4000 3800 50  0000 C CNN
F 2 "" H 4000 3650 50  0000 C CNN
F 3 "" H 4000 3650 50  0000 C CNN
	1    4000 3650
	1    0    0    -1  
$EndComp
$Comp
L VDD #PWR06
U 1 1 5D8575CE
P 4800 6150
F 0 "#PWR06" H 4800 6000 50  0001 C CNN
F 1 "VDD" H 4800 6300 50  0000 C CNN
F 2 "" H 4800 6150 50  0000 C CNN
F 3 "" H 4800 6150 50  0000 C CNN
	1    4800 6150
	1    0    0    -1  
$EndComp
$Comp
L R R3
U 1 1 5D857CAB
P 4700 2300
F 0 "R3" V 4780 2300 50  0000 C CNN
F 1 "220" V 4700 2300 50  0000 C CNN
F 2 "Resistors_ThroughHole:Resistor_Horizontal_RM10mm" V 4630 2300 50  0001 C CNN
F 3 "" H 4700 2300 50  0000 C CNN
	1    4700 2300
	0    1    1    0   
$EndComp
$Comp
L GND #PWR07
U 1 1 5D857CB2
P 5350 2900
F 0 "#PWR07" H 5350 2650 50  0001 C CNN
F 1 "GND" H 5350 2750 50  0000 C CNN
F 2 "" H 5350 2900 50  0000 C CNN
F 3 "" H 5350 2900 50  0000 C CNN
	1    5350 2900
	1    0    0    -1  
$EndComp
$Comp
L CONN_01X02 P3
U 1 1 5D857CB8
P 5900 1950
F 0 "P3" H 5900 2100 50  0000 C CNN
F 1 "LOW-VOLTAGE-LIGHT" V 6000 1950 50  0000 C CNN
F 2 "myConnectors:NINIGI_NS25-W2P" H 5900 1950 50  0001 C CNN
F 3 "" H 5900 1950 50  0000 C CNN
	1    5900 1950
	1    0    0    -1  
$EndComp
$Comp
L R R4
U 1 1 5D857CBF
P 4950 2550
F 0 "R4" V 5030 2550 50  0000 C CNN
F 1 "100K" V 4950 2550 50  0000 C CNN
F 2 "Resistors_ThroughHole:Resistor_Horizontal_RM10mm" V 4880 2550 50  0001 C CNN
F 3 "" H 4950 2550 50  0000 C CNN
	1    4950 2550
	-1   0    0    1   
$EndComp
$Comp
L IRF540N Q3
U 1 1 5D857CC6
P 5250 2250
F 0 "Q3" V 5500 2400 50  0000 L CNN
F 1 "IRL3303" V 5500 2050 50  0000 L CNN
F 2 "Power_Integrations:TO-220" H 5500 2175 50  0001 L CIN
F 3 "" H 5250 2250 50  0000 L CNN
	1    5250 2250
	1    0    0    -1  
$EndComp
Wire Wire Line
	3200 2300 4550 2300
Wire Wire Line
	5350 1900 5350 1800
Wire Wire Line
	5700 1900 5350 1900
Wire Wire Line
	5350 2000 5350 2050
Wire Wire Line
	5700 2000 5350 2000
Connection ~ 5350 2800
Wire Wire Line
	4950 2800 5350 2800
Wire Wire Line
	4950 2700 4950 2800
Connection ~ 4950 2300
Wire Wire Line
	4950 2400 4950 2300
Wire Wire Line
	5350 2450 5350 2900
Wire Wire Line
	4850 2300 5050 2300
$Comp
L VDD #PWR08
U 1 1 5D857CDB
P 5350 1800
F 0 "#PWR08" H 5350 1650 50  0001 C CNN
F 1 "VDD" H 5350 1950 50  0000 C CNN
F 2 "" H 5350 1800 50  0000 C CNN
F 3 "" H 5350 1800 50  0000 C CNN
	1    5350 1800
	1    0    0    -1  
$EndComp
Text Notes 4750 3300 0    60   ~ 0
Q1, R2 R6 & P1 :\nfor low voltage light only
Wire Wire Line
	3200 2300 3200 4650
Connection ~ 3200 4650
$Comp
L LM7812ACT U1
U 1 1 5D858306
P 4300 6300
F 0 "U1" H 4100 6500 50  0000 C CNN
F 1 "LM78XXACT" H 4200 6500 50  0000 L CNN
F 2 "Power_Integrations:TO-220" H 4300 6400 50  0001 C CIN
F 3 "" H 4300 6300 50  0000 C CNN
	1    4300 6300
	1    0    0    -1  
$EndComp
$Comp
L CONN_01X02 P5
U 1 1 5D8583CF
P 2800 6300
F 0 "P5" H 2800 6450 50  0000 C CNN
F 1 "POWER-SUPPLY" V 2900 6300 50  0000 C CNN
F 2 "myConnectors:NINIGI_NS25-W2P" H 2800 6300 50  0001 C CNN
F 3 "" H 2800 6300 50  0000 C CNN
	1    2800 6300
	-1   0    0    -1  
$EndComp
Wire Wire Line
	3000 6250 3900 6250
$Comp
L GND #PWR09
U 1 1 5D858523
P 3100 6450
F 0 "#PWR09" H 3100 6200 50  0001 C CNN
F 1 "GND" H 3100 6300 50  0000 C CNN
F 2 "" H 3100 6450 50  0000 C CNN
F 3 "" H 3100 6450 50  0000 C CNN
	1    3100 6450
	1    0    0    -1  
$EndComp
Wire Wire Line
	3100 6450 3100 6350
Wire Wire Line
	3100 6350 3000 6350
$Comp
L C C1
U 1 1 5D8585CE
P 3850 6500
F 0 "C1" H 3875 6600 50  0000 L CNN
F 1 "470nF" H 3875 6400 50  0000 L CNN
F 2 "Capacitors_ThroughHole:C_Rect_L7_W2.5_P5" H 3888 6350 50  0001 C CNN
F 3 "" H 3850 6500 50  0000 C CNN
	1    3850 6500
	1    0    0    -1  
$EndComp
Wire Wire Line
	3850 6350 3850 6250
Connection ~ 3850 6250
Wire Wire Line
	3850 6650 3850 6750
Wire Wire Line
	3850 6750 4800 6750
Wire Wire Line
	4300 6550 4300 6850
Connection ~ 4300 6750
$Comp
L C C2
U 1 1 5D858740
P 4800 6500
F 0 "C2" H 4825 6600 50  0000 L CNN
F 1 "100nF" H 4825 6400 50  0000 L CNN
F 2 "Capacitors_ThroughHole:C_Rect_L7_W2.5_P5" H 4838 6350 50  0001 C CNN
F 3 "" H 4800 6500 50  0000 C CNN
	1    4800 6500
	1    0    0    -1  
$EndComp
Wire Wire Line
	4800 6750 4800 6650
$Comp
L HEATSINK HS1
U 1 1 5D858987
P 4300 5950
F 0 "HS1" H 4300 6150 50  0000 C CNN
F 1 "HEATSINK" H 4300 5900 50  0000 C CNN
F 2 "myHeatSinks:HEAT-SINK-TO220-24x12x30" H 4300 5950 50  0001 C CNN
F 3 "" H 4300 5950 50  0000 C CNN
	1    4300 5950
	1    0    0    -1  
$EndComp
$EndSCHEMATC
