EESchema Schematic File Version 2
LIBS:power
LIBS:device
LIBS:transistors
LIBS:conn
LIBS:linear
LIBS:regul
LIBS:74xx
LIBS:cmos4000
LIBS:adc-dac
LIBS:memory
LIBS:xilinx
LIBS:microcontrollers
LIBS:dsp
LIBS:microchip
LIBS:analog_switches
LIBS:motorola
LIBS:texas
LIBS:intel
LIBS:audio
LIBS:interface
LIBS:digital-audio
LIBS:philips
LIBS:display
LIBS:cypress
LIBS:siliconi
LIBS:opto
LIBS:atmel
LIBS:contrib
LIBS:valves
LIBS:my-power-supplies
LIBS:my-misc-modules
EELAYER 25 0
EELAYER END
$Descr A4 8268 11693 portrait
encoding utf-8
Sheet 1 1
Title ""
Date ""
Rev ""
Comp ""
Comment1 ""
Comment2 ""
Comment3 ""
Comment4 ""
$EndDescr
$Comp
L IRM-XX-XX U1
U 1 1 5D8B48D1
P 3000 3200
F 0 "U1" H 3000 3450 60  0000 C CNN
F 1 "POWER-SUPPLY 230V / 24V" H 2400 2950 60  0000 L CNN
F 2 "" H 3000 3200 60  0000 C CNN
F 3 "" H 3000 3200 60  0000 C CNN
	1    3000 3200
	1    0    0    -1  
$EndComp
$Comp
L LM7812ACT U4
U 1 1 5D8B4980
P 4550 3150
F 0 "U4" H 4350 3350 50  0000 C CNN
F 1 "12V regulator" H 4450 3350 50  0000 L CNN
F 2 "TO-220" H 4550 3250 50  0001 C CIN
F 3 "" H 4550 3150 50  0000 C CNN
	1    4550 3150
	1    0    0    -1  
$EndComp
Wire Wire Line
	3650 3300 3950 3300
Wire Wire Line
	3950 2150 3950 3300
Wire Wire Line
	3950 3300 3950 3500
Wire Wire Line
	3950 3500 4550 3500
Wire Wire Line
	4550 3500 5050 3500
Wire Wire Line
	4550 3400 4550 3500
Connection ~ 4550 3500
Wire Wire Line
	3650 3100 3850 3100
Wire Wire Line
	3850 3100 4150 3100
$Comp
L Amplifier U6
U 1 1 5D8B4A2B
P 4700 2100
F 0 "U6" H 5100 2250 60  0000 C CNN
F 1 "Amplifier" H 4950 2150 60  0000 C CNN
F 2 "" H 4700 2100 60  0000 C CNN
F 3 "" H 4700 2100 60  0000 C CNN
	1    4700 2100
	1    0    0    -1  
$EndComp
Wire Wire Line
	3850 1950 3850 3100
Connection ~ 3850 3100
Connection ~ 3950 3300
$Comp
L SPEAKER SP1
U 1 1 5D8B4BF0
P 5800 2300
F 0 "SP1" H 5700 2550 50  0000 C CNN
F 1 "SPEAKER" H 5700 2050 50  0000 C CNN
F 2 "" H 5800 2300 50  0000 C CNN
F 3 "" H 5800 2300 50  0000 C CNN
	1    5800 2300
	1    0    0    -1  
$EndComp
Wire Wire Line
	5500 2200 5400 2200
Wire Wire Line
	5400 2400 5500 2400
$Comp
L CONN_01X02 P2
U 1 1 5D8B4C3C
P 2050 3200
F 0 "P2" H 2050 3350 50  0000 C CNN
F 1 "230V" V 2150 3200 50  0000 C CNN
F 2 "" H 2050 3200 50  0000 C CNN
F 3 "" H 2050 3200 50  0000 C CNN
	1    2050 3200
	-1   0    0    1   
$EndComp
Wire Wire Line
	2250 3150 2350 3150
Wire Wire Line
	2350 3250 2250 3250
$Comp
L BELL U8
U 1 1 5D8B4F84
P 5250 3100
F 0 "U8" H 5650 2900 60  0000 C CNN
F 1 "BELL" H 5450 2900 60  0000 C CNN
F 2 "" H 5250 3100 60  0000 C CNN
F 3 "" H 5250 3100 60  0000 C CNN
	1    5250 3100
	1    0    0    -1  
$EndComp
Wire Wire Line
	5050 3100 4950 3100
Wire Wire Line
	5900 2800 5900 2700
Wire Wire Line
	5900 2700 4350 2700
Wire Wire Line
	4350 2700 4350 2350
Wire Wire Line
	4350 2350 4500 2350
Wire Wire Line
	4500 2450 4400 2450
Wire Wire Line
	4400 2450 4400 2650
Wire Wire Line
	4400 2650 6000 2650
Wire Wire Line
	6000 2650 6000 2800
Wire Notes Line
	4200 2900 4900 2900
Wire Notes Line
	4900 2900 4900 3900
Wire Notes Line
	4900 3900 4200 3900
Wire Notes Line
	4200 3900 4200 2900
Wire Wire Line
	5050 3650 4900 3650
Text Notes 4150 4000 0    39   ~ 0
REGULATOR & RELAY BOARD
$Comp
L IRM-XX-XX U3
U 1 1 5D8B5453
P 3400 6350
F 0 "U3" H 3400 6600 60  0000 C CNN
F 1 "POWER-SUPPLY 230V / 24V" H 2800 6100 60  0000 L CNN
F 2 "" H 3400 6350 60  0000 C CNN
F 3 "" H 3400 6350 60  0000 C CNN
	1    3400 6350
	1    0    0    -1  
$EndComp
Wire Wire Line
	4050 6450 4700 6450
Wire Wire Line
	4700 6450 4700 6650
Wire Wire Line
	4700 6650 4700 6650
Wire Wire Line
	4700 6650 5050 6650
Wire Wire Line
	4050 6250 4950 6250
$Comp
L Amplifier U7
U 1 1 5D8B5468
P 4700 5250
F 0 "U7" H 5100 5400 60  0000 C CNN
F 1 "Amplifier" H 4950 5300 60  0000 C CNN
F 2 "" H 4700 5250 60  0000 C CNN
F 3 "" H 4700 5250 60  0000 C CNN
	1    4700 5250
	1    0    0    -1  
$EndComp
$Comp
L SPEAKER SP2
U 1 1 5D8B5475
P 5800 5450
F 0 "SP2" H 5700 5700 50  0000 C CNN
F 1 "SPEAKER" H 5700 5200 50  0000 C CNN
F 2 "" H 5800 5450 50  0000 C CNN
F 3 "" H 5800 5450 50  0000 C CNN
	1    5800 5450
	1    0    0    -1  
$EndComp
Wire Wire Line
	5500 5350 5400 5350
Wire Wire Line
	5400 5550 5500 5550
$Comp
L CONN_01X02 P1
U 1 1 5D8B547D
P 2050 6350
F 0 "P1" H 2050 6500 50  0000 C CNN
F 1 "230V" V 2150 6350 50  0000 C CNN
F 2 "" H 2050 6350 50  0000 C CNN
F 3 "" H 2050 6350 50  0000 C CNN
	1    2050 6350
	-1   0    0    1   
$EndComp
Wire Wire Line
	2250 6300 2250 6300
Wire Wire Line
	2250 6300 2750 6300
Wire Wire Line
	2250 6400 2300 6400
Wire Wire Line
	2300 6400 2750 6400
$Comp
L BELL U9
U 1 1 5D8B5485
P 5250 6250
F 0 "U9" H 5650 6050 60  0000 C CNN
F 1 "BELL" H 5450 6050 60  0000 C CNN
F 2 "" H 5250 6250 60  0000 C CNN
F 3 "" H 5250 6250 60  0000 C CNN
	1    5250 6250
	1    0    0    -1  
$EndComp
Wire Wire Line
	5050 6250 4950 6250
Wire Wire Line
	5900 5950 5900 5850
Wire Wire Line
	5900 5850 4350 5850
Wire Wire Line
	4350 5850 4350 5500
Wire Wire Line
	4350 5500 4500 5500
Wire Wire Line
	4500 5600 4400 5600
Wire Wire Line
	4400 5600 4400 5800
Wire Wire Line
	4400 5800 6000 5800
Wire Wire Line
	6000 5800 6000 5950
Wire Notes Line
	2600 6050 4900 6050
Wire Notes Line
	2600 7300 4900 7300
Wire Wire Line
	5050 6800 4900 6800
Text Notes 3400 7400 0    39   ~ 0
POWER & RELAY BOARD
Wire Wire Line
	5050 6900 4900 6900
Wire Wire Line
	5050 7000 4900 7000
Wire Notes Line
	2600 7300 2600 6050
Wire Notes Line
	4900 7300 4900 6050
$Comp
L IRM-XX-XX U2
U 1 1 5D8B5967
P 3000 5200
F 0 "U2" H 3000 5450 60  0000 C CNN
F 1 "POWER-SUPPLY 230V / 24V" H 2400 4950 60  0000 L CNN
F 2 "" H 3000 5200 60  0000 C CNN
F 3 "" H 3000 5200 60  0000 C CNN
	1    3000 5200
	1    0    0    -1  
$EndComp
Wire Wire Line
	4500 5300 3650 5300
Wire Wire Line
	3850 1950 4500 1950
Wire Wire Line
	3950 2150 4500 2150
Wire Wire Line
	4500 5100 3650 5100
Wire Wire Line
	2350 5250 2250 5250
Wire Wire Line
	2250 5250 2250 5700
Wire Wire Line
	2250 5700 4050 5700
Wire Wire Line
	4050 5700 4050 6050
Wire Wire Line
	2350 5150 2200 5150
Wire Wire Line
	2200 5150 2200 5750
Wire Wire Line
	2200 5750 4000 5750
Wire Wire Line
	4000 5750 4000 6050
Wire Wire Line
	5050 3850 4900 3850
$Comp
L LED D1
U 1 1 5D8B63EB
P 3900 3650
F 0 "D1" H 3900 3750 50  0000 C CNN
F 1 "LED" H 3900 3550 50  0000 C CNN
F 2 "" H 3900 3650 50  0000 C CNN
F 3 "" H 3900 3650 50  0000 C CNN
	1    3900 3650
	1    0    0    -1  
$EndComp
Wire Wire Line
	4100 3650 4200 3650
Wire Wire Line
	3700 3650 3600 3650
Wire Wire Line
	3600 3650 3600 3850
Wire Wire Line
	3600 3850 4200 3850
$Comp
L LED D2
U 1 1 5D8B6641
P 2300 7000
F 0 "D2" H 2300 7100 50  0000 C CNN
F 1 "LED" H 2300 6900 50  0000 C CNN
F 2 "" H 2300 7000 50  0000 C CNN
F 3 "" H 2300 7000 50  0000 C CNN
	1    2300 7000
	1    0    0    -1  
$EndComp
Wire Wire Line
	2500 7000 2600 7000
Wire Wire Line
	2100 7000 2000 7000
Wire Wire Line
	2000 7000 2000 7200
Wire Wire Line
	2000 7200 2600 7200
Text Notes 3850 6150 0    39   ~ 0
AUDIO POWER
Text Notes 2650 7100 0    39   ~ 0
LIGHT OUT
Text Notes 4250 3750 0    39   ~ 0
LIGHT OUT
$EndSCHEMATC
